<svg xmlns:xlink="http://www.w3.org/1999/xlink" height="400" width="400" viewBox="-1 -1 9 10">
<!-- Grid -->
<line x1="0" y1="0" x2="0" y2="9" style="stroke:rgb(0,0,0);stroke-width:0.02" />
<line x1="1" y1="0" x2="1" y2="9" style="stroke:rgb(0,0,0);stroke-width:0.02" />
<line x1="2" y1="0" x2="2" y2="9" style="stroke:rgb(0,0,0);stroke-width:0.02" />
<line x1="3" y1="0" x2="3" y2="9" style="stroke:rgb(0,0,0);stroke-width:0.02" />
<line x1="4" y1="0" x2="4" y2="9" style="stroke:rgb(0,0,0);stroke-width:0.02" />
<line x1="5" y1="0" x2="5" y2="9" style="stroke:rgb(0,0,0);stroke-width:0.02" />
<line x1="6" y1="0" x2="6" y2="9" style="stroke:rgb(0,0,0);stroke-width:0.02" />
<line x1="7" y1="0" x2="7" y2="9" style="stroke:rgb(0,0,0);stroke-width:0.02" />
<line x1="8" y1="0" x2="8" y2="9" style="stroke:rgb(0,0,0);stroke-width:0.02" />
<line x1="0" y1="0" x2="8" y2="0" style="stroke:rgb(0,0,0);stroke-width:0.02" />
<line x1="0" y1="1" x2="8" y2="1" style="stroke:rgb(0,0,0);stroke-width:0.02" />
<line x1="0" y1="2" x2="8" y2="2" style="stroke:rgb(0,0,0);stroke-width:0.02" />
<line x1="0" y1="3" x2="8" y2="3" style="stroke:rgb(0,0,0);stroke-width:0.02" />
<line x1="0" y1="4" x2="8" y2="4" style="stroke:rgb(0,0,0);stroke-width:0.02" />
<line x1="0" y1="5" x2="8" y2="5" style="stroke:rgb(0,0,0);stroke-width:0.02" />
<line x1="0" y1="6" x2="8" y2="6" style="stroke:rgb(0,0,0);stroke-width:0.02" />
<line x1="0" y1="7" x2="8" y2="7" style="stroke:rgb(0,0,0);stroke-width:0.02" />
<line x1="0" y1="8" x2="8" y2="8" style="stroke:rgb(0,0,0);stroke-width:0.02" />
<line x1="0" y1="9" x2="8" y2="9" style="stroke:rgb(0,0,0);stroke-width:0.02" />
<!-- Palaces -->
<line x1="3" y1="0" x2="5" y2="2" style="stroke:rgb(0,0,0);stroke-width:0.02" />
<line x1="3" y1="2" x2="5" y2="0" style="stroke:rgb(0,0,0);stroke-width:0.02" />
<line x1="3" y1="7" x2="5" y2="9" style="stroke:rgb(0,0,0);stroke-width:0.02" />
<line x1="3" y1="9" x2="5" y2="7" style="stroke:rgb(0,0,0);stroke-width:0.02" />
<!-- Han mid pawn crosses -->
<line x1="1.9" y1="2.9" x2="2.1" y2="3.1" style="stroke:rgb(0,0,0);stroke-width:0.02" />
<line x1="1.9" y1="3.1" x2="2.1" y2="2.9" style="stroke:rgb(0,0,0);stroke-width:0.02" />
<line x1="3.9" y1="2.9" x2="4.1" y2="3.1" style="stroke:rgb(0,0,0);stroke-width:0.02" />
<line x1="3.9" y1="3.1" x2="4.1" y2="2.9" style="stroke:rgb(0,0,0);stroke-width:0.02" />
<line x1="5.9" y1="2.9" x2="6.1" y2="3.1" style="stroke:rgb(0,0,0);stroke-width:0.02" />
<line x1="5.9" y1="3.1" x2="6.1" y2="2.9" style="stroke:rgb(0,0,0);stroke-width:0.02" />
<!-- Han edge pawn crosses -->
<line x1="0" y1="3" x2="0.1" y2="3.1" style="stroke:rgb(0,0,0);stroke-width:0.02" />
<line x1="0" y1="3" x2="0.1" y2="2.9" style="stroke:rgb(0,0,0);stroke-width:0.02" />
<line x1="8" y1="3" x2="7.9" y2="3.1" style="stroke:rgb(0,0,0);stroke-width:0.02" />
<line x1="8" y1="3" x2="7.9" y2="2.9" style="stroke:rgb(0,0,0);stroke-width:0.02" />
<!-- Han cannon crosses -->
<line x1="0.9" y1="1.9" x2="1.1" y2="2.1" style="stroke:rgb(0,0,0);stroke-width:0.02" />
<line x1="0.9" y1="2.1" x2="1.1" y2="1.9" style="stroke:rgb(0,0,0);stroke-width:0.02" />
<line x1="6.9" y1="1.9" x2="7.1" y2="2.1" style="stroke:rgb(0,0,0);stroke-width:0.02" />
<line x1="6.9" y1="2.1" x2="7.1" y2="1.9" style="stroke:rgb(0,0,0);stroke-width:0.02" />
<!-- Cho mid pawn crosses -->
<line x1="1.9" y1="5.9" x2="2.1" y2="6.1" style="stroke:rgb(0,0,0);stroke-width:0.02" />
<line x1="1.9" y1="6.1" x2="2.1" y2="5.9" style="stroke:rgb(0,0,0);stroke-width:0.02" />
<line x1="3.9" y1="5.9" x2="4.1" y2="6.1" style="stroke:rgb(0,0,0);stroke-width:0.02" />
<line x1="3.9" y1="6.1" x2="4.1" y2="5.9" style="stroke:rgb(0,0,0);stroke-width:0.02" />
<line x1="5.9" y1="5.9" x2="6.1" y2="6.1" style="stroke:rgb(0,0,0);stroke-width:0.02" />
<line x1="5.9" y1="6.1" x2="6.1" y2="5.9" style="stroke:rgb(0,0,0);stroke-width:0.02" />
<!-- Cho edge pawn crosses -->
<line x1="0" y1="6" x2="0.1" y2="6.1" style="stroke:rgb(0,0,0);stroke-width:0.02" />
<line x1="0" y1="6" x2="0.1" y2="5.9" style="stroke:rgb(0,0,0);stroke-width:0.02" />
<line x1="8" y1="6" x2="7.9" y2="6.1" style="stroke:rgb(0,0,0);stroke-width:0.02" />
<line x1="8" y1="6" x2="7.9" y2="5.9" style="stroke:rgb(0,0,0);stroke-width:0.02" />
<!-- Cho cannon crosses -->
<line x1="0.9" y1="6.9" x2="1.1" y2="7.1" style="stroke:rgb(0,0,0);stroke-width:0.02" />
<line x1="0.9" y1="7.1" x2="1.1" y2="6.9" style="stroke:rgb(0,0,0);stroke-width:0.02" />
<line x1="6.9" y1="6.9" x2="7.1" y2="7.1" style="stroke:rgb(0,0,0);stroke-width:0.02" />
<line x1="6.9" y1="7.1" x2="7.1" y2="6.9" style="stroke:rgb(0,0,0);stroke-width:0.02" />

<use xlink:href="han_k.svg#han_k" x="1.5" y="1.5"/>
<use xlink:href="cho_sa.svg#cho_sa" x="4.5" y="3.5"/>
<use xlink:href="cho_jjol.svg#cho_jjol" x="2.5" y="2.5"/>
</svg>
